lista1/zad4.vcd
$date
  Wed Mar  1 12:09:26 2017
$end
$version
  GHDL v0
$end
$timescale
  1 fs
$end
$var reg 1 ! i0 $end
$var reg 1 " i1 $end
$var reg 1 # ci $end
$var reg 1 $ s $end
$var reg 1 % co $end
$scope module adder_0 $end
$var reg 1 & i0 $end
$var reg 1 ' i1 $end
$var reg 1 ( ci $end
$var reg 1 ) s $end
$var reg 1 * co $end
$var reg 1 + x $end
$var reg 1 , y $end
$upscope $end
$enddefinitions $end
#0
0!
0"
0#
1$
0%
0&
0'
0(
1)
0*
0+
0,
#1000000
1#
0$
1%
1(
0)
1*
1,
#2000000
1"
0#
1'
0(
#3000000
1#
1(
#4000000
1!
0"
0#
1$
0%
1&
0'
0(
1)
0*
0,
#5000000
1#
0$
1%
1(
0)
1*
1,
#6000000
1"
0#
0%
1'
0(
0*
1+
#7000000
1#
1(
