lista2/Xand_tb.vcd
$date
  Sun Mar 12 19:09:36 2017
$end
$version
  GHDL v0
$end
$timescale
  1 fs
$end
$var reg 1 ! clk $end
$var reg 3 " a[2:0] $end
$var reg 3 # b[2:0] $end
$var reg 3 $ c[2:0] $end
$scope module uut $end
$var reg 1 % clk $end
$var reg 3 & a[2:0] $end
$var reg 3 ' b[2:0] $end
$var reg 3 ( c[2:0] $end
$upscope $end
$enddefinitions $end
#0
0!
b000 "
b000 #
b000 $
0%
b000 &
b000 '
b000 (
#10000000
b001 #
b001 '
#20000000
b010 #
b010 '
#30000000
b011 #
b011 '
#40000000
b100 #
b100 '
#50000000
b101 #
b101 '
#60000000
b110 #
b110 '
#70000000
b111 #
b111 '
#80000000
b001 "
b000 #
b001 &
b000 '
#90000000
b001 #
b001 $
b001 '
b001 (
#100000000
b010 #
b000 $
b010 '
b000 (
#110000000
b011 #
b001 $
b011 '
b001 (
#120000000
b100 #
b000 $
b100 '
b000 (
#130000000
b101 #
b001 $
b101 '
b001 (
#140000000
b110 #
b000 $
b110 '
b000 (
#150000000
b111 #
b001 $
b111 '
b001 (
#160000000
b010 "
b000 #
b000 $
b010 &
b000 '
b000 (
#170000000
b001 #
b001 '
#180000000
b010 #
b010 $
b010 '
b010 (
#190000000
b011 #
b011 '
#200000000
b100 #
b000 $
b100 '
b000 (
#210000000
b101 #
b101 '
#220000000
b110 #
b010 $
b110 '
b010 (
#230000000
b111 #
b111 '
#240000000
b011 "
b000 #
b000 $
b011 &
b000 '
b000 (
#250000000
b001 #
b001 $
b001 '
b001 (
#260000000
b010 #
b010 $
b010 '
b010 (
#270000000
b011 #
b011 $
b011 '
b011 (
#280000000
b100 #
b000 $
b100 '
b000 (
#290000000
b101 #
b001 $
b101 '
b001 (
#300000000
b110 #
b010 $
b110 '
b010 (
#310000000
b111 #
b011 $
b111 '
b011 (
#320000000
b100 "
b000 #
b000 $
b100 &
b000 '
b000 (
#330000000
b001 #
b001 '
#340000000
b010 #
b010 '
#350000000
b011 #
b011 '
#360000000
b100 #
b100 $
b100 '
b100 (
#370000000
b101 #
b101 '
#380000000
b110 #
b110 '
#390000000
b111 #
b111 '
#400000000
b101 "
b000 #
b000 $
b101 &
b000 '
b000 (
#410000000
b001 #
b001 $
b001 '
b001 (
#420000000
b010 #
b000 $
b010 '
b000 (
#430000000
b011 #
b001 $
b011 '
b001 (
#440000000
b100 #
b100 $
b100 '
b100 (
#450000000
b101 #
b101 $
b101 '
b101 (
#460000000
b110 #
b100 $
b110 '
b100 (
#470000000
b111 #
b101 $
b111 '
b101 (
#480000000
b110 "
b000 #
b000 $
b110 &
b000 '
b000 (
#490000000
b001 #
b001 '
#500000000
b010 #
b010 $
b010 '
b010 (
#510000000
b011 #
b011 '
#520000000
b100 #
b100 $
b100 '
b100 (
#530000000
b101 #
b101 '
#540000000
b110 #
b110 $
b110 '
b110 (
#550000000
b111 #
b111 '
#560000000
b111 "
b000 #
b000 $
b111 &
b000 '
b000 (
#570000000
b001 #
b001 $
b001 '
b001 (
#580000000
b010 #
b010 $
b010 '
b010 (
#590000000
b011 #
b011 $
b011 '
b011 (
#600000000
b100 #
b100 $
b100 '
b100 (
#610000000
b101 #
b101 $
b101 '
b101 (
#620000000
b110 #
b110 $
b110 '
b110 (
#630000000
b111 #
b111 $
b111 '
b111 (
#640000000
b000 "
b000 #
b000 $
b000 &
b000 '
b000 (
