lista2/zad5_tb.vcd
$date
  Sun Mar 12 19:30:22 2017
$end
$version
  GHDL v0
$end
$timescale
  1 fs
$end
$var reg 1 ! s $end
$var reg 3 " a[2:0] $end
$var reg 3 # b[2:0] $end
$var reg 3 $ x[2:0] $end
$scope module uut $end
$var reg 1 % s $end
$var reg 3 & a[2:0] $end
$var reg 3 ' b[2:0] $end
$var reg 3 ( x[2:0] $end
$upscope $end
$enddefinitions $end
#0
0!
b000 "
b000 #
b000 $
0%
b000 &
b000 '
b000 (
#10000000
b001 #
b001 '
#20000000
b010 #
b010 '
#30000000
b011 #
b011 '
#40000000
b100 #
b100 '
#50000000
b101 #
b101 '
#60000000
b110 #
b110 '
#70000000
b111 #
b111 '
#80000000
b001 "
b000 #
b001 $
b001 &
b000 '
b001 (
#90000000
b001 #
b001 '
#100000000
b010 #
b010 '
#110000000
b011 #
b011 '
#120000000
b100 #
b100 '
#130000000
b101 #
b101 '
#140000000
b110 #
b110 '
#150000000
b111 #
b111 '
#160000000
b010 "
b000 #
b010 $
b010 &
b000 '
b010 (
#170000000
b001 #
b001 '
#180000000
b010 #
b010 '
#190000000
b011 #
b011 '
#200000000
b100 #
b100 '
#210000000
b101 #
b101 '
#220000000
b110 #
b110 '
#230000000
b111 #
b111 '
#240000000
b011 "
b000 #
b011 $
b011 &
b000 '
b011 (
#250000000
b001 #
b001 '
#260000000
b010 #
b010 '
#270000000
b011 #
b011 '
#280000000
b100 #
b100 '
#290000000
b101 #
b101 '
#300000000
b110 #
b110 '
#310000000
b111 #
b111 '
#320000000
b100 "
b000 #
b100 $
b100 &
b000 '
b100 (
#330000000
b001 #
b001 '
#340000000
b010 #
b010 '
#350000000
b011 #
b011 '
#360000000
b100 #
b100 '
#370000000
b101 #
b101 '
#380000000
b110 #
b110 '
#390000000
b111 #
b111 '
#400000000
b101 "
b000 #
b101 $
b101 &
b000 '
b101 (
#410000000
b001 #
b001 '
#420000000
b010 #
b010 '
#430000000
b011 #
b011 '
#440000000
b100 #
b100 '
#450000000
b101 #
b101 '
#460000000
b110 #
b110 '
#470000000
b111 #
b111 '
#480000000
b110 "
b000 #
b110 $
b110 &
b000 '
b110 (
#490000000
b001 #
b001 '
#500000000
b010 #
b010 '
#510000000
b011 #
b011 '
#520000000
b100 #
b100 '
#530000000
b101 #
b101 '
#540000000
b110 #
b110 '
#550000000
b111 #
b111 '
#560000000
b111 "
b000 #
b111 $
b111 &
b000 '
b111 (
#570000000
b001 #
b001 '
#580000000
b010 #
b010 '
#590000000
b011 #
b011 '
#600000000
b100 #
b100 '
#610000000
b101 #
b101 '
#620000000
b110 #
b110 '
#630000000
b111 #
b111 '
#640000000
b000 "
b000 #
b000 $
b000 &
b000 '
b000 (
#650000000
1!
1%
#660000000
b001 #
b001 $
b001 '
b001 (
#670000000
b010 #
b010 $
b010 '
b010 (
#680000000
b011 #
b011 $
b011 '
b011 (
#690000000
b100 #
b100 $
b100 '
b100 (
#700000000
b101 #
b101 $
b101 '
b101 (
#710000000
b110 #
b110 $
b110 '
b110 (
#720000000
b111 #
b111 $
b111 '
b111 (
#730000000
b001 "
b000 #
b000 $
b001 &
b000 '
b000 (
#740000000
b001 #
b001 $
b001 '
b001 (
#750000000
b010 #
b010 $
b010 '
b010 (
#760000000
b011 #
b011 $
b011 '
b011 (
#770000000
b100 #
b100 $
b100 '
b100 (
#780000000
b101 #
b101 $
b101 '
b101 (
#790000000
b110 #
b110 $
b110 '
b110 (
#800000000
b111 #
b111 $
b111 '
b111 (
#810000000
b010 "
b000 #
b000 $
b010 &
b000 '
b000 (
#820000000
b001 #
b001 $
b001 '
b001 (
#830000000
b010 #
b010 $
b010 '
b010 (
#840000000
b011 #
b011 $
b011 '
b011 (
#850000000
b100 #
b100 $
b100 '
b100 (
#860000000
b101 #
b101 $
b101 '
b101 (
#870000000
b110 #
b110 $
b110 '
b110 (
#880000000
b111 #
b111 $
b111 '
b111 (
#890000000
b011 "
b000 #
b000 $
b011 &
b000 '
b000 (
#900000000
b001 #
b001 $
b001 '
b001 (
#910000000
b010 #
b010 $
b010 '
b010 (
#920000000
b011 #
b011 $
b011 '
b011 (
#930000000
b100 #
b100 $
b100 '
b100 (
#940000000
b101 #
b101 $
b101 '
b101 (
#950000000
b110 #
b110 $
b110 '
b110 (
#960000000
b111 #
b111 $
b111 '
b111 (
#970000000
b100 "
b000 #
b000 $
b100 &
b000 '
b000 (
#980000000
b001 #
b001 $
b001 '
b001 (
#990000000
b010 #
b010 $
b010 '
b010 (
#1000000000
b011 #
b011 $
b011 '
b011 (
#1010000000
b100 #
b100 $
b100 '
b100 (
#1020000000
b101 #
b101 $
b101 '
b101 (
#1030000000
b110 #
b110 $
b110 '
b110 (
#1040000000
b111 #
b111 $
b111 '
b111 (
#1050000000
b101 "
b000 #
b000 $
b101 &
b000 '
b000 (
#1060000000
b001 #
b001 $
b001 '
b001 (
#1070000000
b010 #
b010 $
b010 '
b010 (
#1080000000
b011 #
b011 $
b011 '
b011 (
#1090000000
b100 #
b100 $
b100 '
b100 (
#1100000000
b101 #
b101 $
b101 '
b101 (
#1110000000
b110 #
b110 $
b110 '
b110 (
#1120000000
b111 #
b111 $
b111 '
b111 (
#1130000000
b110 "
b000 #
b000 $
b110 &
b000 '
b000 (
#1140000000
b001 #
b001 $
b001 '
b001 (
#1150000000
b010 #
b010 $
b010 '
b010 (
#1160000000
b011 #
b011 $
b011 '
b011 (
#1170000000
b100 #
b100 $
b100 '
b100 (
#1180000000
b101 #
b101 $
b101 '
b101 (
#1190000000
b110 #
b110 $
b110 '
b110 (
#1200000000
b111 #
b111 $
b111 '
b111 (
#1210000000
b111 "
b000 #
b000 $
b111 &
b000 '
b000 (
#1220000000
b001 #
b001 $
b001 '
b001 (
#1230000000
b010 #
b010 $
b010 '
b010 (
#1240000000
b011 #
b011 $
b011 '
b011 (
#1250000000
b100 #
b100 $
b100 '
b100 (
#1260000000
b101 #
b101 $
b101 '
b101 (
#1270000000
b110 #
b110 $
b110 '
b110 (
#1280000000
b111 #
b111 $
b111 '
b111 (
#1290000000
b000 "
b000 #
b000 $
b000 &
b000 '
b000 (
